--cache=/Users/cipl0668/Documents/PricillaProjects/M3App/M3App/M3App.iOS/obj/iPhone/Debug/device-builds/iphone11.6-13.3/mtouch-cache
--dev=/Users/cipl0668/Documents/PricillaProjects/M3App/M3App/M3App.iOS/bin/iPhone/Debug/device-builds/iphone11.6-13.3/M3App.iOS.app
--executable=M3App.iOS
 --debug
 --linksdkonly
--sdkroot=/Users/cipl0668/Desktop/Xcode.app/Contents/Developer
--sdk=13.2
--targetver=10.3
 --aot-options=-O=-float32
 --http-message-handler=NSUrlSessionHandler
 --abi=arm64
--symbollist=/Users/cipl0668/Documents/PricillaProjects/M3App/M3App/M3App.iOS/obj/iPhone/Debug/device-builds/iphone11.6-13.3/mtouch-symbols.list
 --dsym=no
-r=/Users/cipl0668/Documents/PricillaProjects/M3App/M3App/M3App/bin/Debug/netstandard2.0/M3App.dll
-r=/Library/Frameworks/Xamarin.iOS.framework/Versions/Current/lib/mono/Xamarin.iOS/mscorlib.dll
-r=/Library/Frameworks/Xamarin.iOS.framework/Versions/Current/lib/mono/Xamarin.iOS/OpenTK-1.0.dll
-r=/Library/Frameworks/Xamarin.iOS.framework/Versions/Current/lib/mono/Xamarin.iOS/System.Core.dll
-r=/Library/Frameworks/Xamarin.iOS.framework/Versions/Current/lib/mono/Xamarin.iOS/System.dll
-r=/Library/Frameworks/Xamarin.iOS.framework/Versions/Current/lib/mono/Xamarin.iOS/System.Net.Http.dll
-r=/Library/Frameworks/Xamarin.iOS.framework/Versions/Current/lib/mono/Xamarin.iOS/System.Xml.dll
-r=/Library/Frameworks/Xamarin.iOS.framework/Versions/Current/lib/mono/Xamarin.iOS/System.Xml.Linq.dll
-r=/Library/Frameworks/Xamarin.iOS.framework/Versions/Current/lib/mono/Xamarin.iOS/Xamarin.iOS.dll
-r=/Library/Frameworks/Xamarin.iOS.framework/Versions/Current/lib/mono/Xamarin.iOS/Facades/Microsoft.Win32.Primitives.dll
-r=/Library/Frameworks/Xamarin.iOS.framework/Versions/Current/lib/mono/Xamarin.iOS/Facades/Microsoft.Win32.Registry.AccessControl.dll
-r=/Library/Frameworks/Xamarin.iOS.framework/Versions/Current/lib/mono/Xamarin.iOS/Facades/Microsoft.Win32.Registry.dll
-r=/Library/Frameworks/Xamarin.iOS.framework/Versions/Current/lib/mono/Xamarin.iOS/Facades/netstandard.dll
-r=/Library/Frameworks/Xamarin.iOS.framework/Versions/Current/lib/mono/Xamarin.iOS/Facades/System.AppContext.dll
-r=/Library/Frameworks/Xamarin.iOS.framework/Versions/Current/lib/mono/Xamarin.iOS/Facades/System.Buffers.dll
-r=/Library/Frameworks/Xamarin.iOS.framework/Versions/Current/lib/mono/Xamarin.iOS/Facades/System.Collections.Concurrent.dll
-r=/Library/Frameworks/Xamarin.iOS.framework/Versions/Current/lib/mono/Xamarin.iOS/Facades/System.Collections.dll
-r=/Library/Frameworks/Xamarin.iOS.framework/Versions/Current/lib/mono/Xamarin.iOS/Facades/System.Collections.NonGeneric.dll
-r=/Library/Frameworks/Xamarin.iOS.framework/Versions/Current/lib/mono/Xamarin.iOS/Facades/System.Collections.Specialized.dll
-r=/Library/Frameworks/Xamarin.iOS.framework/Versions/Current/lib/mono/Xamarin.iOS/Facades/System.ComponentModel.Annotations.dll
-r=/Library/Frameworks/Xamarin.iOS.framework/Versions/Current/lib/mono/Xamarin.iOS/Facades/System.ComponentModel.dll
-r=/Library/Frameworks/Xamarin.iOS.framework/Versions/Current/lib/mono/Xamarin.iOS/Facades/System.ComponentModel.EventBasedAsync.dll
-r=/Library/Frameworks/Xamarin.iOS.framework/Versions/Current/lib/mono/Xamarin.iOS/Facades/System.ComponentModel.Primitives.dll
-r=/Library/Frameworks/Xamarin.iOS.framework/Versions/Current/lib/mono/Xamarin.iOS/Facades/System.ComponentModel.TypeConverter.dll
-r=/Library/Frameworks/Xamarin.iOS.framework/Versions/Current/lib/mono/Xamarin.iOS/Facades/System.Console.dll
-r=/Library/Frameworks/Xamarin.iOS.framework/Versions/Current/lib/mono/Xamarin.iOS/Facades/System.Data.Common.dll
-r=/Library/Frameworks/Xamarin.iOS.framework/Versions/Current/lib/mono/Xamarin.iOS/Facades/System.Data.SqlClient.dll
-r=/Library/Frameworks/Xamarin.iOS.framework/Versions/Current/lib/mono/Xamarin.iOS/Facades/System.Diagnostics.Contracts.dll
-r=/Library/Frameworks/Xamarin.iOS.framework/Versions/Current/lib/mono/Xamarin.iOS/Facades/System.Diagnostics.Debug.dll
-r=/Library/Frameworks/Xamarin.iOS.framework/Versions/Current/lib/mono/Xamarin.iOS/Facades/System.Diagnostics.FileVersionInfo.dll
-r=/Library/Frameworks/Xamarin.iOS.framework/Versions/Current/lib/mono/Xamarin.iOS/Facades/System.Diagnostics.Process.dll
-r=/Library/Frameworks/Xamarin.iOS.framework/Versions/Current/lib/mono/Xamarin.iOS/Facades/System.Diagnostics.StackTrace.dll
-r=/Library/Frameworks/Xamarin.iOS.framework/Versions/Current/lib/mono/Xamarin.iOS/Facades/System.Diagnostics.TextWriterTraceListener.dll
-r=/Library/Frameworks/Xamarin.iOS.framework/Versions/Current/lib/mono/Xamarin.iOS/Facades/System.Diagnostics.Tools.dll
-r=/Library/Frameworks/Xamarin.iOS.framework/Versions/Current/lib/mono/Xamarin.iOS/Facades/System.Diagnostics.TraceEvent.dll
-r=/Library/Frameworks/Xamarin.iOS.framework/Versions/Current/lib/mono/Xamarin.iOS/Facades/System.Diagnostics.TraceSource.dll
-r=/Library/Frameworks/Xamarin.iOS.framework/Versions/Current/lib/mono/Xamarin.iOS/Facades/System.Diagnostics.Tracing.dll
-r=/Library/Frameworks/Xamarin.iOS.framework/Versions/Current/lib/mono/Xamarin.iOS/Facades/System.Drawing.Common.dll
-r=/Library/Frameworks/Xamarin.iOS.framework/Versions/Current/lib/mono/Xamarin.iOS/Facades/System.Drawing.Primitives.dll
-r=/Library/Frameworks/Xamarin.iOS.framework/Versions/Current/lib/mono/Xamarin.iOS/Facades/System.Dynamic.Runtime.dll
-r=/Library/Frameworks/Xamarin.iOS.framework/Versions/Current/lib/mono/Xamarin.iOS/Facades/System.Globalization.Calendars.dll
-r=/Library/Frameworks/Xamarin.iOS.framework/Versions/Current/lib/mono/Xamarin.iOS/Facades/System.Globalization.dll
-r=/Library/Frameworks/Xamarin.iOS.framework/Versions/Current/lib/mono/Xamarin.iOS/Facades/System.Globalization.Extensions.dll
-r=/Library/Frameworks/Xamarin.iOS.framework/Versions/Current/lib/mono/Xamarin.iOS/Facades/System.IO.Compression.ZipFile.dll
-r=/Library/Frameworks/Xamarin.iOS.framework/Versions/Current/lib/mono/Xamarin.iOS/Facades/System.IO.dll
-r=/Library/Frameworks/Xamarin.iOS.framework/Versions/Current/lib/mono/Xamarin.iOS/Facades/System.IO.FileSystem.AccessControl.dll
-r=/Library/Frameworks/Xamarin.iOS.framework/Versions/Current/lib/mono/Xamarin.iOS/Facades/System.IO.FileSystem.dll
-r=/Library/Frameworks/Xamarin.iOS.framework/Versions/Current/lib/mono/Xamarin.iOS/Facades/System.IO.FileSystem.DriveInfo.dll
-r=/Library/Frameworks/Xamarin.iOS.framework/Versions/Current/lib/mono/Xamarin.iOS/Facades/System.IO.FileSystem.Primitives.dll
-r=/Library/Frameworks/Xamarin.iOS.framework/Versions/Current/lib/mono/Xamarin.iOS/Facades/System.IO.FileSystem.Watcher.dll
-r=/Library/Frameworks/Xamarin.iOS.framework/Versions/Current/lib/mono/Xamarin.iOS/Facades/System.IO.IsolatedStorage.dll
-r=/Library/Frameworks/Xamarin.iOS.framework/Versions/Current/lib/mono/Xamarin.iOS/Facades/System.IO.MemoryMappedFiles.dll
-r=/Library/Frameworks/Xamarin.iOS.framework/Versions/Current/lib/mono/Xamarin.iOS/Facades/System.IO.Pipes.dll
-r=/Library/Frameworks/Xamarin.iOS.framework/Versions/Current/lib/mono/Xamarin.iOS/Facades/System.IO.UnmanagedMemoryStream.dll
-r=/Library/Frameworks/Xamarin.iOS.framework/Versions/Current/lib/mono/Xamarin.iOS/Facades/System.Linq.dll
-r=/Library/Frameworks/Xamarin.iOS.framework/Versions/Current/lib/mono/Xamarin.iOS/Facades/System.Linq.Expressions.dll
-r=/Library/Frameworks/Xamarin.iOS.framework/Versions/Current/lib/mono/Xamarin.iOS/Facades/System.Linq.Parallel.dll
-r=/Library/Frameworks/Xamarin.iOS.framework/Versions/Current/lib/mono/Xamarin.iOS/Facades/System.Linq.Queryable.dll
-r=/Library/Frameworks/Xamarin.iOS.framework/Versions/Current/lib/mono/Xamarin.iOS/Facades/System.Memory.dll
-r=/Library/Frameworks/Xamarin.iOS.framework/Versions/Current/lib/mono/Xamarin.iOS/Facades/System.Net.AuthenticationManager.dll
-r=/Library/Frameworks/Xamarin.iOS.framework/Versions/Current/lib/mono/Xamarin.iOS/Facades/System.Net.Cache.dll
-r=/Library/Frameworks/Xamarin.iOS.framework/Versions/Current/lib/mono/Xamarin.iOS/Facades/System.Net.HttpListener.dll
-r=/Library/Frameworks/Xamarin.iOS.framework/Versions/Current/lib/mono/Xamarin.iOS/Facades/System.Net.Mail.dll
-r=/Library/Frameworks/Xamarin.iOS.framework/Versions/Current/lib/mono/Xamarin.iOS/Facades/System.Net.NameResolution.dll
-r=/Library/Frameworks/Xamarin.iOS.framework/Versions/Current/lib/mono/Xamarin.iOS/Facades/System.Net.NetworkInformation.dll
-r=/Library/Frameworks/Xamarin.iOS.framework/Versions/Current/lib/mono/Xamarin.iOS/Facades/System.Net.Ping.dll
-r=/Library/Frameworks/Xamarin.iOS.framework/Versions/Current/lib/mono/Xamarin.iOS/Facades/System.Net.Primitives.dll
-r=/Library/Frameworks/Xamarin.iOS.framework/Versions/Current/lib/mono/Xamarin.iOS/Facades/System.Net.Requests.dll
-r=/Library/Frameworks/Xamarin.iOS.framework/Versions/Current/lib/mono/Xamarin.iOS/Facades/System.Net.Security.dll
-r=/Library/Frameworks/Xamarin.iOS.framework/Versions/Current/lib/mono/Xamarin.iOS/Facades/System.Net.ServicePoint.dll
-r=/Library/Frameworks/Xamarin.iOS.framework/Versions/Current/lib/mono/Xamarin.iOS/Facades/System.Net.Sockets.dll
-r=/Library/Frameworks/Xamarin.iOS.framework/Versions/Current/lib/mono/Xamarin.iOS/Facades/System.Net.Utilities.dll
-r=/Library/Frameworks/Xamarin.iOS.framework/Versions/Current/lib/mono/Xamarin.iOS/Facades/System.Net.WebHeaderCollection.dll
-r=/Library/Frameworks/Xamarin.iOS.framework/Versions/Current/lib/mono/Xamarin.iOS/Facades/System.Net.WebSockets.Client.dll
-r=/Library/Frameworks/Xamarin.iOS.framework/Versions/Current/lib/mono/Xamarin.iOS/Facades/System.Net.WebSockets.dll
-r=/Library/Frameworks/Xamarin.iOS.framework/Versions/Current/lib/mono/Xamarin.iOS/Facades/System.ObjectModel.dll
-r=/Library/Frameworks/Xamarin.iOS.framework/Versions/Current/lib/mono/Xamarin.iOS/Facades/System.Reflection.DispatchProxy.dll
-r=/Library/Frameworks/Xamarin.iOS.framework/Versions/Current/lib/mono/Xamarin.iOS/Facades/System.Reflection.dll
-r=/Library/Frameworks/Xamarin.iOS.framework/Versions/Current/lib/mono/Xamarin.iOS/Facades/System.Reflection.Emit.dll
-r=/Library/Frameworks/Xamarin.iOS.framework/Versions/Current/lib/mono/Xamarin.iOS/Facades/System.Reflection.Emit.ILGeneration.dll
-r=/Library/Frameworks/Xamarin.iOS.framework/Versions/Current/lib/mono/Xamarin.iOS/Facades/System.Reflection.Emit.Lightweight.dll
-r=/Library/Frameworks/Xamarin.iOS.framework/Versions/Current/lib/mono/Xamarin.iOS/Facades/System.Reflection.Extensions.dll
-r=/Library/Frameworks/Xamarin.iOS.framework/Versions/Current/lib/mono/Xamarin.iOS/Facades/System.Reflection.Primitives.dll
-r=/Library/Frameworks/Xamarin.iOS.framework/Versions/Current/lib/mono/Xamarin.iOS/Facades/System.Reflection.TypeExtensions.dll
-r=/Library/Frameworks/Xamarin.iOS.framework/Versions/Current/lib/mono/Xamarin.iOS/Facades/System.Resources.Reader.dll
-r=/Library/Frameworks/Xamarin.iOS.framework/Versions/Current/lib/mono/Xamarin.iOS/Facades/System.Resources.ReaderWriter.dll
-r=/Library/Frameworks/Xamarin.iOS.framework/Versions/Current/lib/mono/Xamarin.iOS/Facades/System.Resources.ResourceManager.dll
-r=/Library/Frameworks/Xamarin.iOS.framework/Versions/Current/lib/mono/Xamarin.iOS/Facades/System.Resources.Writer.dll
-r=/Library/Frameworks/Xamarin.iOS.framework/Versions/Current/lib/mono/Xamarin.iOS/Facades/System.Runtime.CompilerServices.VisualC.dll
-r=/Library/Frameworks/Xamarin.iOS.framework/Versions/Current/lib/mono/Xamarin.iOS/Facades/System.Runtime.dll
-r=/Library/Frameworks/Xamarin.iOS.framework/Versions/Current/lib/mono/Xamarin.iOS/Facades/System.Runtime.Extensions.dll
-r=/Library/Frameworks/Xamarin.iOS.framework/Versions/Current/lib/mono/Xamarin.iOS/Facades/System.Runtime.Handles.dll
-r=/Library/Frameworks/Xamarin.iOS.framework/Versions/Current/lib/mono/Xamarin.iOS/Facades/System.Runtime.InteropServices.dll
-r=/Library/Frameworks/Xamarin.iOS.framework/Versions/Current/lib/mono/Xamarin.iOS/Facades/System.Runtime.InteropServices.RuntimeInformation.dll
-r=/Library/Frameworks/Xamarin.iOS.framework/Versions/Current/lib/mono/Xamarin.iOS/Facades/System.Runtime.InteropServices.WindowsRuntime.dll
-r=/Library/Frameworks/Xamarin.iOS.framework/Versions/Current/lib/mono/Xamarin.iOS/Facades/System.Runtime.Loader.dll
-r=/Library/Frameworks/Xamarin.iOS.framework/Versions/Current/lib/mono/Xamarin.iOS/Facades/System.Runtime.Numerics.dll
-r=/Library/Frameworks/Xamarin.iOS.framework/Versions/Current/lib/mono/Xamarin.iOS/Facades/System.Runtime.Serialization.Formatters.dll
-r=/Library/Frameworks/Xamarin.iOS.framework/Versions/Current/lib/mono/Xamarin.iOS/Facades/System.Runtime.Serialization.Json.dll
-r=/Library/Frameworks/Xamarin.iOS.framework/Versions/Current/lib/mono/Xamarin.iOS/Facades/System.Runtime.Serialization.Primitives.dll
-r=/Library/Frameworks/Xamarin.iOS.framework/Versions/Current/lib/mono/Xamarin.iOS/Facades/System.Runtime.Serialization.Xml.dll
-r=/Library/Frameworks/Xamarin.iOS.framework/Versions/Current/lib/mono/Xamarin.iOS/Facades/System.Security.AccessControl.dll
-r=/Library/Frameworks/Xamarin.iOS.framework/Versions/Current/lib/mono/Xamarin.iOS/Facades/System.Security.Claims.dll
-r=/Library/Frameworks/Xamarin.iOS.framework/Versions/Current/lib/mono/Xamarin.iOS/Facades/System.Security.Cryptography.Algorithms.dll
-r=/Library/Frameworks/Xamarin.iOS.framework/Versions/Current/lib/mono/Xamarin.iOS/Facades/System.Security.Cryptography.Cng.dll
-r=/Library/Frameworks/Xamarin.iOS.framework/Versions/Current/lib/mono/Xamarin.iOS/Facades/System.Security.Cryptography.Csp.dll
-r=/Library/Frameworks/Xamarin.iOS.framework/Versions/Current/lib/mono/Xamarin.iOS/Facades/System.Security.Cryptography.DeriveBytes.dll
-r=/Library/Frameworks/Xamarin.iOS.framework/Versions/Current/lib/mono/Xamarin.iOS/Facades/System.Security.Cryptography.Encoding.dll
-r=/Library/Frameworks/Xamarin.iOS.framework/Versions/Current/lib/mono/Xamarin.iOS/Facades/System.Security.Cryptography.Encryption.Aes.dll
-r=/Library/Frameworks/Xamarin.iOS.framework/Versions/Current/lib/mono/Xamarin.iOS/Facades/System.Security.Cryptography.Encryption.dll
-r=/Library/Frameworks/Xamarin.iOS.framework/Versions/Current/lib/mono/Xamarin.iOS/Facades/System.Security.Cryptography.Encryption.ECDiffieHellman.dll
-r=/Library/Frameworks/Xamarin.iOS.framework/Versions/Current/lib/mono/Xamarin.iOS/Facades/System.Security.Cryptography.Encryption.ECDsa.dll
-r=/Library/Frameworks/Xamarin.iOS.framework/Versions/Current/lib/mono/Xamarin.iOS/Facades/System.Security.Cryptography.Hashing.Algorithms.dll
-r=/Library/Frameworks/Xamarin.iOS.framework/Versions/Current/lib/mono/Xamarin.iOS/Facades/System.Security.Cryptography.Hashing.dll
-r=/Library/Frameworks/Xamarin.iOS.framework/Versions/Current/lib/mono/Xamarin.iOS/Facades/System.Security.Cryptography.OpenSsl.dll
-r=/Library/Frameworks/Xamarin.iOS.framework/Versions/Current/lib/mono/Xamarin.iOS/Facades/System.Security.Cryptography.Pkcs.dll
-r=/Library/Frameworks/Xamarin.iOS.framework/Versions/Current/lib/mono/Xamarin.iOS/Facades/System.Security.Cryptography.Primitives.dll
-r=/Library/Frameworks/Xamarin.iOS.framework/Versions/Current/lib/mono/Xamarin.iOS/Facades/System.Security.Cryptography.ProtectedData.dll
-r=/Library/Frameworks/Xamarin.iOS.framework/Versions/Current/lib/mono/Xamarin.iOS/Facades/System.Security.Cryptography.RandomNumberGenerator.dll
-r=/Library/Frameworks/Xamarin.iOS.framework/Versions/Current/lib/mono/Xamarin.iOS/Facades/System.Security.Cryptography.RSA.dll
-r=/Library/Frameworks/Xamarin.iOS.framework/Versions/Current/lib/mono/Xamarin.iOS/Facades/System.Security.Cryptography.X509Certificates.dll
-r=/Library/Frameworks/Xamarin.iOS.framework/Versions/Current/lib/mono/Xamarin.iOS/Facades/System.Security.Principal.dll
-r=/Library/Frameworks/Xamarin.iOS.framework/Versions/Current/lib/mono/Xamarin.iOS/Facades/System.Security.Principal.Windows.dll
-r=/Library/Frameworks/Xamarin.iOS.framework/Versions/Current/lib/mono/Xamarin.iOS/Facades/System.Security.SecureString.dll
-r=/Library/Frameworks/Xamarin.iOS.framework/Versions/Current/lib/mono/Xamarin.iOS/Facades/System.ServiceModel.Duplex.dll
-r=/Library/Frameworks/Xamarin.iOS.framework/Versions/Current/lib/mono/Xamarin.iOS/Facades/System.ServiceModel.Http.dll
-r=/Library/Frameworks/Xamarin.iOS.framework/Versions/Current/lib/mono/Xamarin.iOS/Facades/System.ServiceModel.NetTcp.dll
-r=/Library/Frameworks/Xamarin.iOS.framework/Versions/Current/lib/mono/Xamarin.iOS/Facades/System.ServiceModel.Primitives.dll
-r=/Library/Frameworks/Xamarin.iOS.framework/Versions/Current/lib/mono/Xamarin.iOS/Facades/System.ServiceModel.Security.dll
-r=/Library/Frameworks/Xamarin.iOS.framework/Versions/Current/lib/mono/Xamarin.iOS/Facades/System.ServiceProcess.ServiceController.dll
-r=/Library/Frameworks/Xamarin.iOS.framework/Versions/Current/lib/mono/Xamarin.iOS/Facades/System.Text.Encoding.CodePages.dll
-r=/Library/Frameworks/Xamarin.iOS.framework/Versions/Current/lib/mono/Xamarin.iOS/Facades/System.Text.Encoding.dll
-r=/Library/Frameworks/Xamarin.iOS.framework/Versions/Current/lib/mono/Xamarin.iOS/Facades/System.Text.Encoding.Extensions.dll
-r=/Library/Frameworks/Xamarin.iOS.framework/Versions/Current/lib/mono/Xamarin.iOS/Facades/System.Text.RegularExpressions.dll
-r=/Library/Frameworks/Xamarin.iOS.framework/Versions/Current/lib/mono/Xamarin.iOS/Facades/System.Threading.AccessControl.dll
-r=/Library/Frameworks/Xamarin.iOS.framework/Versions/Current/lib/mono/Xamarin.iOS/Facades/System.Threading.dll
-r=/Library/Frameworks/Xamarin.iOS.framework/Versions/Current/lib/mono/Xamarin.iOS/Facades/System.Threading.Overlapped.dll
-r=/Library/Frameworks/Xamarin.iOS.framework/Versions/Current/lib/mono/Xamarin.iOS/Facades/System.Threading.Tasks.dll
-r=/Library/Frameworks/Xamarin.iOS.framework/Versions/Current/lib/mono/Xamarin.iOS/Facades/System.Threading.Tasks.Extensions.dll
-r=/Library/Frameworks/Xamarin.iOS.framework/Versions/Current/lib/mono/Xamarin.iOS/Facades/System.Threading.Tasks.Parallel.dll
-r=/Library/Frameworks/Xamarin.iOS.framework/Versions/Current/lib/mono/Xamarin.iOS/Facades/System.Threading.Thread.dll
-r=/Library/Frameworks/Xamarin.iOS.framework/Versions/Current/lib/mono/Xamarin.iOS/Facades/System.Threading.ThreadPool.dll
-r=/Library/Frameworks/Xamarin.iOS.framework/Versions/Current/lib/mono/Xamarin.iOS/Facades/System.Threading.Timer.dll
-r=/Library/Frameworks/Xamarin.iOS.framework/Versions/Current/lib/mono/Xamarin.iOS/Facades/System.ValueTuple.dll
-r=/Library/Frameworks/Xamarin.iOS.framework/Versions/Current/lib/mono/Xamarin.iOS/Facades/System.Xml.ReaderWriter.dll
-r=/Library/Frameworks/Xamarin.iOS.framework/Versions/Current/lib/mono/Xamarin.iOS/Facades/System.Xml.XDocument.dll
-r=/Library/Frameworks/Xamarin.iOS.framework/Versions/Current/lib/mono/Xamarin.iOS/Facades/System.Xml.XmlDocument.dll
-r=/Library/Frameworks/Xamarin.iOS.framework/Versions/Current/lib/mono/Xamarin.iOS/Facades/System.Xml.XmlSerializer.dll
-r=/Library/Frameworks/Xamarin.iOS.framework/Versions/Current/lib/mono/Xamarin.iOS/Facades/System.Xml.XPath.dll
-r=/Library/Frameworks/Xamarin.iOS.framework/Versions/Current/lib/mono/Xamarin.iOS/Facades/System.Xml.XPath.XDocument.dll
-r=/Library/Frameworks/Xamarin.iOS.framework/Versions/Current/lib/mono/Xamarin.iOS/Facades/System.Xml.XPath.XmlDocument.dll
-r=/Library/Frameworks/Xamarin.iOS.framework/Versions/Current/lib/mono/Xamarin.iOS/Facades/System.Xml.Xsl.Primitives.dll
-r=/Users/cipl0668/.nuget/packages/acr.userdialogs/7.0.1/lib/xamarinios10/Acr.UserDialogs.dll
-r=/Users/cipl0668/.nuget/packages/btprogresshud/1.2.0.6/lib/Xamarin.iOS10/BTProgressHUD.dll
-r=/Users/cipl0668/.nuget/packages/newtonsoft.json/11.0.2/lib/netstandard2.0/Newtonsoft.Json.dll
-r=/Users/cipl0668/.nuget/packages/rg.plugins.popup/1.1.4.145-pre/lib/Xamarin.IOS/Rg.Plugins.Popup.IOS.dll
-r=/Users/cipl0668/.nuget/packages/rg.plugins.popup/1.1.4.145-pre/lib/Xamarin.IOS/Rg.Plugins.Popup.dll
-r=/Users/cipl0668/.nuget/packages/sqlite-net-pcl/1.4.118/lib/netstandard1.1/SQLite-net.dll
-r=/Users/cipl0668/.nuget/packages/sqlitenetextensions/2.1.0/lib/netstandard1.1/SQLiteNetExtensions.dll
-r=/Users/cipl0668/.nuget/packages/sqlitepcl.raw/0.9.2/lib/Xamarin.iOS10/SQLitePCL.raw.dll
-r=/Users/cipl0668/.nuget/packages/sqlitepclraw.bundle_green/1.1.5/lib/Xamarin.iOS10/SQLitePCLRaw.batteries_green.dll
-r=/Users/cipl0668/.nuget/packages/sqlitepclraw.bundle_green/1.1.5/lib/Xamarin.iOS10/SQLitePCLRaw.batteries_v2.dll
-r=/Users/cipl0668/.nuget/packages/sqlitepclraw.core/1.1.5/lib/Xamarin.iOS10/SQLitePCLRaw.core.dll
-r=/Users/cipl0668/.nuget/packages/sqlitepclraw.provider.sqlite3.ios_unified/1.1.5/lib/Xamarin.iOS10/SQLitePCLRaw.provider.sqlite3.dll
-r=/Users/cipl0668/.nuget/packages/xam.plugin.connectivity/3.1.1/lib/Xamarin.iOS10/Plugin.Connectivity.Abstractions.dll
-r=/Users/cipl0668/.nuget/packages/xam.plugin.connectivity/3.1.1/lib/Xamarin.iOS10/Plugin.Connectivity.dll
-r=/Users/cipl0668/.nuget/packages/xam.plugins.settings/3.1.1/lib/Xamarin.iOS10/Plugin.Settings.Abstractions.dll
-r=/Users/cipl0668/.nuget/packages/xam.plugins.settings/3.1.1/lib/Xamarin.iOS10/Plugin.Settings.dll
-r=/Users/cipl0668/.nuget/packages/xamarin.controls.signaturepad/2.2.0/lib/Xamarin.iOS/SignaturePad.dll
-r=/Users/cipl0668/.nuget/packages/xamarin.controls.signaturepad.forms/2.2.0/lib/Xamarin.iOS/SignaturePad.Forms.dll
-r=/Users/cipl0668/.nuget/packages/xamarin.forms/2.5.0.280555/lib/Xamarin.iOS10/Xamarin.Forms.Core.dll
-r=/Users/cipl0668/.nuget/packages/xamarin.forms/2.5.0.280555/lib/Xamarin.iOS10/Xamarin.Forms.Platform.dll
-r=/Users/cipl0668/.nuget/packages/xamarin.forms/2.5.0.280555/lib/Xamarin.iOS10/Xamarin.Forms.Platform.iOS.dll
-r=/Users/cipl0668/.nuget/packages/xamarin.forms/2.5.0.280555/lib/Xamarin.iOS10/Xamarin.Forms.Xaml.dll
-r=/Users/cipl0668/.nuget/packages/xamarin.forms/2.5.0.280555/lib/Xamarin.iOS10/ar/Xamarin.Forms.Platform.iOS.resources.dll
-r=/Users/cipl0668/.nuget/packages/xamarin.forms/2.5.0.280555/lib/Xamarin.iOS10/ca/Xamarin.Forms.Platform.iOS.resources.dll
-r=/Users/cipl0668/.nuget/packages/xamarin.forms/2.5.0.280555/lib/Xamarin.iOS10/cs/Xamarin.Forms.Platform.iOS.resources.dll
-r=/Users/cipl0668/.nuget/packages/xamarin.forms/2.5.0.280555/lib/Xamarin.iOS10/da/Xamarin.Forms.Platform.iOS.resources.dll
-r=/Users/cipl0668/.nuget/packages/xamarin.forms/2.5.0.280555/lib/Xamarin.iOS10/de/Xamarin.Forms.Platform.iOS.resources.dll
-r=/Users/cipl0668/.nuget/packages/xamarin.forms/2.5.0.280555/lib/Xamarin.iOS10/el/Xamarin.Forms.Platform.iOS.resources.dll
-r=/Users/cipl0668/.nuget/packages/xamarin.forms/2.5.0.280555/lib/Xamarin.iOS10/es/Xamarin.Forms.Platform.iOS.resources.dll
-r=/Users/cipl0668/.nuget/packages/xamarin.forms/2.5.0.280555/lib/Xamarin.iOS10/fi/Xamarin.Forms.Platform.iOS.resources.dll
-r=/Users/cipl0668/.nuget/packages/xamarin.forms/2.5.0.280555/lib/Xamarin.iOS10/fr/Xamarin.Forms.Platform.iOS.resources.dll
-r=/Users/cipl0668/.nuget/packages/xamarin.forms/2.5.0.280555/lib/Xamarin.iOS10/he/Xamarin.Forms.Platform.iOS.resources.dll
-r=/Users/cipl0668/.nuget/packages/xamarin.forms/2.5.0.280555/lib/Xamarin.iOS10/hi/Xamarin.Forms.Platform.iOS.resources.dll
-r=/Users/cipl0668/.nuget/packages/xamarin.forms/2.5.0.280555/lib/Xamarin.iOS10/hr/Xamarin.Forms.Platform.iOS.resources.dll
-r=/Users/cipl0668/.nuget/packages/xamarin.forms/2.5.0.280555/lib/Xamarin.iOS10/hu/Xamarin.Forms.Platform.iOS.resources.dll
-r=/Users/cipl0668/.nuget/packages/xamarin.forms/2.5.0.280555/lib/Xamarin.iOS10/id/Xamarin.Forms.Platform.iOS.resources.dll
-r=/Users/cipl0668/.nuget/packages/xamarin.forms/2.5.0.280555/lib/Xamarin.iOS10/it/Xamarin.Forms.Platform.iOS.resources.dll
-r=/Users/cipl0668/.nuget/packages/xamarin.forms/2.5.0.280555/lib/Xamarin.iOS10/ja/Xamarin.Forms.Platform.iOS.resources.dll
-r=/Users/cipl0668/.nuget/packages/xamarin.forms/2.5.0.280555/lib/Xamarin.iOS10/ko/Xamarin.Forms.Platform.iOS.resources.dll
-r=/Users/cipl0668/.nuget/packages/xamarin.forms/2.5.0.280555/lib/Xamarin.iOS10/ms/Xamarin.Forms.Platform.iOS.resources.dll
-r=/Users/cipl0668/.nuget/packages/xamarin.forms/2.5.0.280555/lib/Xamarin.iOS10/nb/Xamarin.Forms.Platform.iOS.resources.dll
-r=/Users/cipl0668/.nuget/packages/xamarin.forms/2.5.0.280555/lib/Xamarin.iOS10/nl/Xamarin.Forms.Platform.iOS.resources.dll
-r=/Users/cipl0668/.nuget/packages/xamarin.forms/2.5.0.280555/lib/Xamarin.iOS10/pl/Xamarin.Forms.Platform.iOS.resources.dll
-r=/Users/cipl0668/.nuget/packages/xamarin.forms/2.5.0.280555/lib/Xamarin.iOS10/pt-BR/Xamarin.Forms.Platform.iOS.resources.dll
-r=/Users/cipl0668/.nuget/packages/xamarin.forms/2.5.0.280555/lib/Xamarin.iOS10/pt/Xamarin.Forms.Platform.iOS.resources.dll
-r=/Users/cipl0668/.nuget/packages/xamarin.forms/2.5.0.280555/lib/Xamarin.iOS10/ro/Xamarin.Forms.Platform.iOS.resources.dll
-r=/Users/cipl0668/.nuget/packages/xamarin.forms/2.5.0.280555/lib/Xamarin.iOS10/ru/Xamarin.Forms.Platform.iOS.resources.dll
-r=/Users/cipl0668/.nuget/packages/xamarin.forms/2.5.0.280555/lib/Xamarin.iOS10/sk/Xamarin.Forms.Platform.iOS.resources.dll
-r=/Users/cipl0668/.nuget/packages/xamarin.forms/2.5.0.280555/lib/Xamarin.iOS10/sv/Xamarin.Forms.Platform.iOS.resources.dll
-r=/Users/cipl0668/.nuget/packages/xamarin.forms/2.5.0.280555/lib/Xamarin.iOS10/th/Xamarin.Forms.Platform.iOS.resources.dll
-r=/Users/cipl0668/.nuget/packages/xamarin.forms/2.5.0.280555/lib/Xamarin.iOS10/tr/Xamarin.Forms.Platform.iOS.resources.dll
-r=/Users/cipl0668/.nuget/packages/xamarin.forms/2.5.0.280555/lib/Xamarin.iOS10/uk/Xamarin.Forms.Platform.iOS.resources.dll
-r=/Users/cipl0668/.nuget/packages/xamarin.forms/2.5.0.280555/lib/Xamarin.iOS10/vi/Xamarin.Forms.Platform.iOS.resources.dll
-r=/Users/cipl0668/.nuget/packages/xamarin.forms/2.5.0.280555/lib/Xamarin.iOS10/zh-HK/Xamarin.Forms.Platform.iOS.resources.dll
-r=/Users/cipl0668/.nuget/packages/xamarin.forms/2.5.0.280555/lib/Xamarin.iOS10/zh-Hans/Xamarin.Forms.Platform.iOS.resources.dll
-r=/Users/cipl0668/.nuget/packages/xamarin.forms/2.5.0.280555/lib/Xamarin.iOS10/zh-Hant/Xamarin.Forms.Platform.iOS.resources.dll
-r=/Users/cipl0668/.nuget/packages/xamarin.forms.maps/2.5.0.280555/lib/Xamarin.iOS10/Xamarin.Forms.Maps.dll
-r=/Users/cipl0668/.nuget/packages/xamarin.forms.maps/2.5.0.280555/lib/Xamarin.iOS10/Xamarin.Forms.Maps.iOS.dll
-r=/Users/cipl0668/Documents/PricillaProjects/M3App/M3App/M3App/bin/Debug/netstandard2.0/M3App.dll
-r=/Users/cipl0668/Documents/PricillaProjects/M3App/M3App/M3App/bin/Debug/netstandard2.0/M3App.Cores.dll
 --target-framework=Xamarin.iOS,v1.0
--root-assembly=/Users/cipl0668/Documents/PricillaProjects/M3App/M3App/M3App.iOS/bin/iPhone/Debug/M3App.iOS.exe
 
